{
  "project_info": {
    "project_number": "607662978754",
    "firebase_url": "https://firstaed-app.firebaseio.com",
    "project_id": "firstaed-app"
  },
  "client": [
    {
      "client_info": {
        "mobilesdk_app_id": "1:607662978754:android:df5ca97c46957d63",
        "android_client_info": {
          "package_name": "com.firstaed.responderapp"
        }
      },
      "oauth_client": [
        {
          "client_id": "607662978754-39ojrg7471kcr3djvtbclf1sih88ftse.apps.googleusercontent.com",
          "client_type": 1,
          "android_info": {
            "package_name": "com.firstaed.responderapp",
            "certificate_hash": "12e92e6940749a7589515e8d67f37e892abe9717"
          }
        },
        {
          "client_id": "607662978754-289d2m9mu0bpfbefujgj5jofrsbp1d2i.apps.googleusercontent.com",
          "client_type": 3
        }
      ],
      "api_key": [
        {
          "current_key": "AIzaSyBr1BnjMbjmqu9Y6QGBqjKUp1c2uOU2qxg"
        }
      ],
      "services": {
        "analytics_service": {
          "status": 1
        },
        "appinvite_service": {
          "status": 2,
          "other_platform_oauth_client": [
            {
              "client_id": "607662978754-cvg9sae39u0n2t2qepfefvrpl82vihue.apps.googleusercontent.com",
              "client_type": 2,
              "ios_info": {
                "bundle_id": "com.firstaed.regionsyddanmark"
              }
            },
            {
              "client_id": "607662978754-289d2m9mu0bpfbefujgj5jofrsbp1d2i.apps.googleusercontent.com",
              "client_type": 3
            }
          ]
        },
        "ads_service": {
          "status": 2
        }
      }
    },
    {
      "client_info": {
        "mobilesdk_app_id": "1:607662978754:android:16264f7e2f0aa1a3",
        "android_client_info": {
          "package_name": "com.firstaed.syddanmark"
        }
      },
      "oauth_client": [
        {
          "client_id": "607662978754-0c40n952jrdqg8opo2b0naoaorkeusd1.apps.googleusercontent.com",
          "client_type": 1,
          "android_info": {
            "package_name": "com.firstaed.syddanmark",
            "certificate_hash": "26808a470451e6afbcf0c0d53dcf28d63abc71eb"
          }
        },
        {
          "client_id": "607662978754-289d2m9mu0bpfbefujgj5jofrsbp1d2i.apps.googleusercontent.com",
          "client_type": 3
        }
      ],
      "api_key": [
        {
          "current_key": "AIzaSyBr1BnjMbjmqu9Y6QGBqjKUp1c2uOU2qxg"
        }
      ],
      "services": {
        "analytics_service": {
          "status": 1
        },
        "appinvite_service": {
          "status": 2,
          "other_platform_oauth_client": [
            {
              "client_id": "607662978754-cvg9sae39u0n2t2qepfefvrpl82vihue.apps.googleusercontent.com",
              "client_type": 2,
              "ios_info": {
                "bundle_id": "com.firstaed.regionsyddanmark"
              }
            },
            {
              "client_id": "607662978754-289d2m9mu0bpfbefujgj5jofrsbp1d2i.apps.googleusercontent.com",
              "client_type": 3
            }
          ]
        },
        "ads_service": {
          "status": 2
        }
      }
    },
    {
      "client_info": {
        "mobilesdk_app_id": "1:607662978754:android:a767584e039e8f4e",
        "android_client_info": {
          "package_name": "com.firstaed.respondersystem"
        }
      },
      "oauth_client": [
        {
          "client_id": "607662978754-289d2m9mu0bpfbefujgj5jofrsbp1d2i.apps.googleusercontent.com",
          "client_type": 3
        }
      ],
      "api_key": [
        {
          "current_key": "AIzaSyBr1BnjMbjmqu9Y6QGBqjKUp1c2uOU2qxg"
        }
      ],
      "services": {
        "analytics_service": {
          "status": 1
        },
        "appinvite_service": {
          "status": 1,
          "other_platform_oauth_client": []
        },
        "ads_service": {
          "status": 2
        }
      }
    }
  ],
  "configuration_version": "1"
}